TestCfg,EncodeMethod,CodecName,EncodePreset,Class,Name,Res,FPS,BitDepth,QP,POC,FrameType,Level,qindex,FrameSize,PSNR_Y,PSNR_U,PSNR_V,SSIM_Y(dB),MS-SSIM_Y(dB),VMAF_Y,VMAF_Y-NEG,PSNR-HVS,CIEDE2000,CAMBI
STILL,aom,av2,0,F1,animals_00.y4m,4032x3024,25,8,60,0, KEY ,1,60,5816856,48.753115,50.034100,51.266779,50.343882,34.462782,97.011000,96.363019,54.487682,48.119252,0.000000
STILL,aom,av2,0,F1,animals_00.y4m,4032x3024,25,8,85,0, KEY ,1,85,3805638,42.817334,46.248047,48.615181,44.590513,28.427814,96.275663,95.283072,49.762010,43.512779,0.000013
STILL,aom,av2,0,F1,animals_00.y4m,4032x3024,25,8,110,0, KEY ,1,110,2063890,36.824113,43.127933,46.249651,38.499715,22.276529,94.177560,92.770359,43.322877,38.924198,0.000311
STILL,aom,av2,0,F1,animals_00.y4m,4032x3024,25,8,135,0, KEY ,1,135,919552,32.229288,40.443819,43.886273,32.282082,17.669224,88.476251,86.498501,36.504222,35.089285,0.002576
STILL,aom,av2,0,F1,animals_00.y4m,4032x3024,25,8,160,0, KEY ,1,160,426775,28.850313,37.879540,41.648628,26.272112,14.357476,73.992011,71.925454,30.392667,32.092934,0.008261
STILL,aom,av2,0,F1,animals_00.y4m,4032x3024,25,8,185,0, KEY ,1,185,189072,25.496949,35.370527,39.555674,20.338366,10.799928,50.222370,48.441356,24.608634,29.049647,0.023171
STILL,aom,av2,0,F1,animals_03.y4m,4032x3024,25,8,60,0, KEY ,1,60,4031107,48.788647,50.928879,51.273613,46.045838,31.402132,96.600443,95.855544,52.806900,48.325119,0.000009
STILL,aom,av2,0,F1,animals_03.y4m,4032x3024,25,8,85,0, KEY ,1,85,2238826,42.978181,48.599518,48.949786,40.660559,25.434745,95.190907,94.185813,47.941367,44.312316,0.002360
STILL,aom,av2,0,F1,animals_03.y4m,4032x3024,25,8,110,0, KEY ,1,110,957756,37.954801,46.473148,46.963424,34.597969,19.913981,92.176159,90.615872,41.694519,40.663112,0.208440
STILL,aom,av2,0,F1,animals_03.y4m,4032x3024,25,8,135,0, KEY ,1,135,350287,34.392482,44.400734,45.037709,28.668041,15.439470,84.397311,82.295096,35.295132,37.783192,1.030410
STILL,aom,av2,0,F1,animals_03.y4m,4032x3024,25,8,160,0, KEY ,1,160,147218,31.902842,42.744563,43.121215,23.417175,12.380507,67.773340,65.718169,30.364427,35.566745,1.862578
STILL,aom,av2,0,F1,animals_03.y4m,4032x3024,25,8,185,0, KEY ,1,185,64848,29.354245,40.873424,40.942467,18.283305,9.791567,43.204873,41.794827,26.276824,33.128100,1.907316
STILL,aom,av2,0,F1,animals_09.y4m,4032x3024,25,8,60,0, KEY ,1,60,1098082,51.373872,55.855820,56.423841,44.038619,29.524669,96.551804,95.403109,50.948999,54.417014,0.016876
STILL,aom,av2,0,F1,animals_09.y4m,4032x3024,25,8,85,0, KEY ,1,85,551658,47.681886,53.423405,54.131287,38.311447,24.907171,95.431457,93.814979,46.559279,50.220145,0.045452
STILL,aom,av2,0,F1,animals_09.y4m,4032x3024,25,8,110,0, KEY ,1,110,268127,43.984708,51.209026,52.115032,32.366071,20.573658,91.974287,89.953912,41.686112,46.761932,0.173518
STILL,aom,av2,0,F1,animals_09.y4m,4032x3024,25,8,135,0, KEY ,1,135,114560,40.303971,48.777301,49.963644,26.289923,16.455791,82.862457,80.692801,36.890210,43.398182,0.551221
STILL,aom,av2,0,F1,animals_09.y4m,4032x3024,25,8,160,0, KEY ,1,160,45954,37.221207,46.038059,47.209771,20.662428,13.454570,65.651333,63.940800,33.253828,40.374564,0.805733
STILL,aom,av2,0,F1,animals_09.y4m,4032x3024,25,8,185,0, KEY ,1,185,20022,34.608472,42.777623,43.761183,16.031313,11.338928,47.469418,46.029634,30.404041,37.734596,1.260298
STILL,aom,av2,0,F1,buildings_02.y4m,4032x3024,25,8,60,0, KEY ,1,60,2907800,49.040161,53.069482,53.844368,41.762781,29.610655,97.211605,96.623072,50.298421,50.344440,0.852494
STILL,aom,av2,0,F1,buildings_02.y4m,4032x3024,25,8,85,0, KEY ,1,85,1512810,43.916984,50.813657,51.535156,36.002315,24.761622,96.878763,95.913894,46.660101,46.283443,5.822611
STILL,aom,av2,0,F1,buildings_02.y4m,4032x3024,25,8,110,0, KEY ,1,110,787803,39.993019,48.640255,49.454371,32.023328,22.256495,95.552583,94.106268,43.751990,43.372832,11.149151
STILL,aom,av2,0,F1,buildings_02.y4m,4032x3024,25,8,135,0, KEY ,1,135,415882,36.335182,46.571939,47.508557,29.481662,20.594978,91.659790,89.595824,40.397393,40.854757,11.014884
STILL,aom,av2,0,F1,buildings_02.y4m,4032x3024,25,8,160,0, KEY ,1,160,203637,32.550995,44.138615,45.129757,26.111529,18.394752,82.606012,79.916870,35.590590,38.111809,10.643177
STILL,aom,av2,0,F1,buildings_02.y4m,4032x3024,25,8,185,0, KEY ,1,185,88683,28.733263,41.587190,42.383682,21.763674,15.244755,66.648274,63.537594,29.770112,35.105114,8.304920
STILL,aom,av2,0,F1,buildings_03.y4m,4032x3024,25,8,60,0, KEY ,1,60,6267763,48.627603,51.157030,51.044371,49.575482,37.810404,97.084801,96.399704,55.410757,47.402605,0.001975
STILL,aom,av2,0,F1,buildings_03.y4m,4032x3024,25,8,85,0, KEY ,1,85,4299335,42.768281,48.190460,48.051030,43.716304,31.767969,96.391659,95.310162,51.036082,43.135463,0.003729
STILL,aom,av2,0,F1,buildings_03.y4m,4032x3024,25,8,110,0, KEY ,1,110,2671120,37.004689,45.716335,45.397128,37.761682,25.980608,94.419248,92.823505,45.217033,38.918511,0.005129
STILL,aom,av2,0,F1,buildings_03.y4m,4032x3024,25,8,135,0, KEY ,1,135,1426488,31.809532,43.297467,42.802544,31.732587,20.816555,88.983351,86.881479,38.080579,34.831383,0.015858
STILL,aom,av2,0,F1,buildings_03.y4m,4032x3024,25,8,160,0, KEY ,1,160,671984,27.461641,40.866824,40.274304,25.586139,16.128497,75.083065,72.761452,30.543152,31.120153,0.028455
STILL,aom,av2,0,F1,buildings_03.y4m,4032x3024,25,8,185,0, KEY ,1,185,283605,23.688617,38.466189,37.770513,19.586976,11.793722,50.657972,48.588361,23.744416,27.579940,0.053836
STILL,aom,av2,0,F1,church.y4m,6000x4000,25,8,60,0, KEY ,1,60,1952095,51.542812,52.415808,52.473504,45.112294,29.186035,96.411727,95.514233,49.500989,52.190783,0.500948
STILL,aom,av2,0,F1,church.y4m,6000x4000,25,8,85,0, KEY ,1,85,755683,47.999738,49.973665,50.112842,38.920795,25.085092,94.668429,93.440909,45.979675,48.778141,1.579100
STILL,aom,av2,0,F1,church.y4m,6000x4000,25,8,110,0, KEY ,1,110,349560,45.359048,47.727013,48.195255,33.543745,22.119285,90.787152,89.183833,42.857352,46.404679,2.130688
STILL,aom,av2,0,F1,church.y4m,6000x4000,25,8,135,0, KEY ,1,135,164345,42.380001,45.175528,46.006964,28.148206,18.925694,82.374590,80.381794,39.110967,43.881431,2.493507
STILL,aom,av2,0,F1,church.y4m,6000x4000,25,8,160,0, KEY ,1,160,74020,39.200656,42.336058,43.530289,22.963957,15.660541,66.346556,64.244612,35.253415,41.145468,3.201980
STILL,aom,av2,0,F1,church.y4m,6000x4000,25,8,185,0, KEY ,1,185,30410,35.946135,39.267319,40.990386,17.921643,12.512848,44.475987,42.673013,31.584275,38.275481,3.823137
STILL,aom,av2,0,F1,fireworks_01.y4m,4032x3024,25,8,60,0, KEY ,1,60,4317289,48.962325,55.128571,53.451691,41.617621,30.063418,96.415779,95.758472,53.155243,52.153241,0.000008
STILL,aom,av2,0,F1,fireworks_01.y4m,4032x3024,25,8,85,0, KEY ,1,85,2589463,43.049434,52.991844,51.833548,35.944955,24.026077,94.938065,93.988846,48.231367,47.713649,0.000135
STILL,aom,av2,0,F1,fireworks_01.y4m,4032x3024,25,8,110,0, KEY ,1,110,1066309,37.139029,50.628631,50.049041,29.842955,17.574664,91.516791,90.175348,41.034768,42.936825,0.001301
STILL,aom,av2,0,F1,fireworks_01.y4m,4032x3024,25,8,135,0, KEY ,1,135,231968,33.153556,47.867985,47.759430,23.452971,11.639221,83.154536,81.606182,34.082718,39.223694,0.217742
STILL,aom,av2,0,F1,fireworks_01.y4m,4032x3024,25,8,160,0, KEY ,1,160,49324,31.532179,44.806630,45.011525,17.284380,8.692072,67.419146,66.132344,30.413664,37.466251,9.439122
STILL,aom,av2,0,F1,fireworks_01.y4m,4032x3024,25,8,185,0, KEY ,1,185,21363,30.698078,41.922929,41.469820,14.772879,8.082238,52.977330,51.911663,28.833209,36.265401,14.303469
STILL,aom,av2,0,F1,flowerfield.y4m,3696x2448,25,8,60,0, KEY ,1,60,1288040,51.570501,51.580763,51.981045,48.445087,32.435537,96.840428,96.085276,52.933729,53.654024,0.002541
STILL,aom,av2,0,F1,flowerfield.y4m,3696x2448,25,8,85,0, KEY ,1,85,676561,47.523956,47.258696,47.866714,42.208287,27.648175,95.727335,94.622231,47.881527,48.935304,0.005825
STILL,aom,av2,0,F1,flowerfield.y4m,3696x2448,25,8,110,0, KEY ,1,110,351678,43.920295,43.498478,44.364055,36.342124,23.950622,92.722702,91.281315,42.803148,45.409801,0.005449
STILL,aom,av2,0,F1,flowerfield.y4m,3696x2448,25,8,135,0, KEY ,1,135,183911,40.302134,39.889629,40.959366,30.319852,20.287534,85.589325,83.798449,37.558666,41.964340,0.007018
STILL,aom,av2,0,F1,flowerfield.y4m,3696x2448,25,8,160,0, KEY ,1,160,94635,36.557576,36.444881,37.579286,24.591109,16.626349,70.775484,68.760431,32.653592,38.413416,0.010975
STILL,aom,av2,0,F1,flowerfield.y4m,3696x2448,25,8,185,0, KEY ,1,185,46422,32.719767,33.231543,34.126434,19.213856,13.136067,47.614556,45.846096,28.155152,34.819056,0.015294
STILL,aom,av2,0,F1,flowers_08.y4m,4032x3024,25,8,60,0, KEY ,1,60,5332732,48.693116,50.245286,51.540991,50.288202,33.329745,97.075098,96.462996,54.051817,48.974850,0.009273
STILL,aom,av2,0,F1,flowers_08.y4m,4032x3024,25,8,85,0, KEY ,1,85,3322875,42.879301,45.905798,48.065791,44.523982,27.419125,96.346210,95.418731,49.115178,44.042332,0.017983
STILL,aom,av2,0,F1,flowers_08.y4m,4032x3024,25,8,110,0, KEY ,1,110,1855778,37.713013,42.287045,44.824805,38.530980,22.525442,94.398955,93.007590,43.009830,39.795800,0.030976
STILL,aom,av2,0,F1,flowers_08.y4m,4032x3024,25,8,135,0, KEY ,1,135,961198,33.306155,39.172967,41.780014,32.485075,18.592435,89.209574,87.088373,36.736655,36.107359,0.051908
STILL,aom,av2,0,F1,flowers_08.y4m,4032x3024,25,8,160,0, KEY ,1,160,462009,29.358241,36.099506,38.846794,26.637736,14.770551,75.538279,73.260270,30.547798,32.703021,0.104604
STILL,aom,av2,0,F1,flowers_08.y4m,4032x3024,25,8,185,0, KEY ,1,185,208334,25.714332,32.878696,35.836076,20.669882,10.908780,52.462029,50.652504,24.622998,29.345056,0.163758
STILL,aom,av2,0,F1,flowers_12.y4m,4032x3024,25,8,60,0, KEY ,1,60,4154610,48.602168,52.139825,53.365787,51.491729,33.711954,97.076164,96.571479,54.250548,49.251967,0.000117
STILL,aom,av2,0,F1,flowers_12.y4m,4032x3024,25,8,85,0, KEY ,1,85,2382701,42.994616,49.400195,50.968477,45.812672,27.951581,96.409929,95.657244,49.388484,44.613566,0.000313
STILL,aom,av2,0,F1,flowers_12.y4m,4032x3024,25,8,110,0, KEY ,1,110,1187196,38.239399,46.767604,48.441521,39.723524,23.013315,94.597498,93.477029,43.030237,40.624057,0.000950
STILL,aom,av2,0,F1,flowers_12.y4m,4032x3024,25,8,135,0, KEY ,1,135,558301,34.439649,43.955865,45.766661,33.571935,19.039792,89.650180,88.088072,36.530623,37.261945,0.019363
STILL,aom,av2,0,F1,flowers_12.y4m,4032x3024,25,8,160,0, KEY ,1,160,276412,31.190897,41.165267,43.129314,27.531495,15.493610,78.317544,76.208911,30.703281,34.264260,0.043108
STILL,aom,av2,0,F1,flowers_12.y4m,4032x3024,25,8,185,0, KEY ,1,185,133923,27.780740,38.456616,40.215331,21.560925,11.797084,58.085735,56.172448,25.382442,31.103049,0.070233
STILL,aom,av2,0,F1,food_02.y4m,4032x3024,25,8,60,0, KEY ,1,60,3105988,48.611184,53.540414,54.536563,45.516990,29.927886,97.022697,96.323461,52.388296,50.887948,0.000444
STILL,aom,av2,0,F1,food_02.y4m,4032x3024,25,8,85,0, KEY ,1,85,1485656,43.349458,50.840171,52.372595,39.443692,24.004584,96.385328,95.321323,47.187760,46.137282,0.005209
STILL,aom,av2,0,F1,food_02.y4m,4032x3024,25,8,110,0, KEY ,1,110,637504,39.314609,48.266300,50.196379,33.124978,18.808522,94.097702,92.686559,40.854406,42.514078,0.021025
STILL,aom,av2,0,F1,food_02.y4m,4032x3024,25,8,135,0, KEY ,1,135,250742,36.115825,45.552609,47.872144,27.901989,15.413201,87.811422,85.975512,35.786637,39.604820,0.139110
STILL,aom,av2,0,F1,food_02.y4m,4032x3024,25,8,160,0, KEY ,1,160,108494,33.520165,42.606859,45.127341,22.902315,12.956342,74.755015,72.596107,31.810558,37.177120,0.309788
STILL,aom,av2,0,F1,food_02.y4m,4032x3024,25,8,185,0, KEY ,1,185,45762,30.732147,39.433283,42.035174,17.715117,10.308599,55.759960,53.809153,27.853578,34.533539,1.146481
STILL,aom,av2,0,F1,fountain.y4m,6406x4270,25,8,60,0, KEY ,1,60,7403114,48.949771,52.319541,52.921747,49.193685,30.214322,96.643767,95.729626,52.176720,51.567485,0.000090
STILL,aom,av2,0,F1,fountain.y4m,6406x4270,25,8,85,0, KEY ,1,85,3947961,43.465646,49.597943,50.358276,43.376655,24.399905,95.228073,94.069333,47.398289,46.606599,0.000609
STILL,aom,av2,0,F1,fountain.y4m,6406x4270,25,8,110,0, KEY ,1,110,1512927,38.574630,46.897081,47.673691,37.424181,18.869665,92.126932,90.587915,41.400745,42.138595,0.001965
STILL,aom,av2,0,F1,fountain.y4m,6406x4270,25,8,135,0, KEY ,1,135,464911,35.422039,44.008988,44.773270,31.595885,15.351126,85.077549,83.054736,36.432597,39.095462,0.405759
STILL,aom,av2,0,F1,fountain.y4m,6406x4270,25,8,160,0, KEY ,1,160,208571,33.556825,40.903225,41.595813,26.414418,13.476456,71.034302,68.815738,32.547417,37.093293,0.630821
STILL,aom,av2,0,F1,fountain.y4m,6406x4270,25,8,185,0, KEY ,1,185,91018,31.157389,37.447900,38.263200,21.229075,11.106557,49.092377,46.993232,28.428618,34.695709,0.539053
STILL,aom,av2,0,F1,lady.y4m,4480x6720,25,8,60,0, KEY ,1,60,5583282,48.897182,56.167648,55.805446,45.705434,27.884729,96.317748,95.524422,50.084006,50.485287,0.093319
STILL,aom,av2,0,F1,lady.y4m,4480x6720,25,8,85,0, KEY ,1,85,1962539,43.493675,54.212645,53.661889,39.081206,21.727949,94.959036,93.925982,45.136740,45.477713,0.859482
STILL,aom,av2,0,F1,lady.y4m,4480x6720,25,8,110,0, KEY ,1,110,396471,40.555943,52.313497,51.561530,33.349141,18.073733,92.196928,90.765367,41.251700,42.683641,5.690904
STILL,aom,av2,0,F1,lady.y4m,4480x6720,25,8,135,0, KEY ,1,135,158518,39.225294,50.223856,49.453926,28.926048,16.455616,84.664918,83.016153,38.610432,41.433675,5.774041
STILL,aom,av2,0,F1,lady.y4m,4480x6720,25,8,160,0, KEY ,1,160,64363,37.607007,47.603986,46.899664,24.243397,14.616570,69.637382,68.061149,35.698967,39.848535,5.857199
STILL,aom,av2,0,F1,lady.y4m,4480x6720,25,8,185,0, KEY ,1,185,25301,35.668547,44.351254,43.912770,19.175834,12.584378,48.102849,46.772844,32.758602,37.868910,5.641363
STILL,aom,av2,0,F1,landscape_05.y4m,4032x3024,25,8,60,0, KEY ,1,60,4391057,48.793113,51.340415,52.183216,48.181797,32.087331,96.931986,96.316069,53.527589,49.865580,0.000002
STILL,aom,av2,0,F1,landscape_05.y4m,4032x3024,25,8,85,0, KEY ,1,85,2623875,43.183691,47.916425,49.151422,42.383961,26.284910,96.144871,95.200519,48.568000,44.908252,0.000019
STILL,aom,av2,0,F1,landscape_05.y4m,4032x3024,25,8,110,0, KEY ,1,110,1329260,38.126443,44.725375,46.118015,36.463099,20.841033,93.867542,92.534039,42.242716,40.518460,0.010814
STILL,aom,av2,0,F1,landscape_05.y4m,4032x3024,25,8,135,0, KEY ,1,135,631284,34.266649,41.675822,43.127667,30.821740,17.070516,87.549453,85.779117,36.225758,37.093039,0.048117
STILL,aom,av2,0,F1,landscape_05.y4m,4032x3024,25,8,160,0, KEY ,1,160,306786,30.889682,38.639070,40.265050,25.039984,13.845036,73.030497,71.137415,30.712643,34.108999,0.119232
STILL,aom,av2,0,F1,landscape_05.y4m,4032x3024,25,8,185,0, KEY ,1,185,138508,27.368203,35.768970,37.326601,19.241375,10.496280,50.116547,48.493542,25.383567,31.017851,0.313867
STILL,aom,av2,0,F1,landscape_15.y4m,4032x3024,25,8,60,0, KEY ,1,60,2898477,49.524898,53.646053,54.204731,44.253793,30.495807,96.994672,96.274983,51.327781,50.749993,0.894175
STILL,aom,av2,0,F1,landscape_15.y4m,4032x3024,25,8,85,0, KEY ,1,85,1681379,44.427922,51.384795,51.954935,38.330792,25.502222,96.206748,95.171109,47.317091,46.549052,2.859820
STILL,aom,av2,0,F1,landscape_15.y4m,4032x3024,25,8,110,0, KEY ,1,110,865196,39.731685,49.171659,49.866316,33.971568,21.313179,93.934257,92.511226,42.700434,42.924867,3.418186
STILL,aom,av2,0,F1,landscape_15.y4m,4032x3024,25,8,135,0, KEY ,1,135,406138,35.744160,46.942072,47.884796,29.205957,17.708465,88.081651,86.111150,37.478957,39.747072,3.365043
STILL,aom,av2,0,F1,landscape_15.y4m,4032x3024,25,8,160,0, KEY ,1,160,187606,32.301134,44.437905,45.626675,24.422329,14.503054,74.795452,72.612072,32.193766,36.811490,3.559499
STILL,aom,av2,0,F1,landscape_15.y4m,4032x3024,25,8,185,0, KEY ,1,185,79989,28.933296,41.580218,42.781318,19.555386,11.450557,53.097198,51.246602,27.093046,33.840195,3.431252
STILL,aom,av2,0,F1,landscape_16.y4m,4032x3024,25,8,60,0, KEY ,1,60,1590920,50.551902,57.158946,58.051996,42.763069,29.801388,96.870398,96.071002,51.504520,53.041139,0.000003
STILL,aom,av2,0,F1,landscape_16.y4m,4032x3024,25,8,85,0, KEY ,1,85,890757,46.501535,54.864836,55.726068,36.816457,24.923848,95.992246,94.843058,46.951676,48.801130,0.000066
STILL,aom,av2,0,F1,landscape_16.y4m,4032x3024,25,8,110,0, KEY ,1,110,480291,42.385193,52.845832,53.677538,31.016527,20.375705,93.892906,92.080536,41.765663,45.208102,0.000579
STILL,aom,av2,0,F1,landscape_16.y4m,4032x3024,25,8,135,0, KEY ,1,135,237975,38.373222,50.649930,51.518032,25.643573,16.361407,87.156641,84.893970,36.662784,41.798327,0.015136
STILL,aom,av2,0,F1,landscape_16.y4m,4032x3024,25,8,160,0, KEY ,1,160,113619,34.721303,48.058949,48.866345,21.402258,13.314349,71.469335,69.324197,32.121109,38.365956,0.173127
STILL,aom,av2,0,F1,landscape_16.y4m,4032x3024,25,8,185,0, KEY ,1,185,49009,31.237952,45.624304,46.997299,16.778899,10.363066,48.980969,47.634939,27.790786,35.426141,0.647713
STILL,aom,av2,0,F1,landscape_18.y4m,4032x3024,25,8,60,0, KEY ,1,60,2623413,49.608025,54.512065,56.013880,41.038171,29.940425,96.915258,96.144373,50.370887,51.194756,1.146721
STILL,aom,av2,0,F1,landscape_18.y4m,4032x3024,25,8,85,0, KEY ,1,85,1507334,44.626072,52.458081,54.186618,35.774348,25.674989,95.926097,94.842630,47.369968,47.278676,1.301172
STILL,aom,av2,0,F1,landscape_18.y4m,4032x3024,25,8,110,0, KEY ,1,110,672312,39.564533,50.512191,52.465368,31.860997,21.165718,93.392357,91.913852,43.278831,43.527247,1.318440
STILL,aom,av2,0,F1,landscape_18.y4m,4032x3024,25,8,135,0, KEY ,1,135,260506,35.994659,48.705361,50.755796,27.789134,17.218816,87.001528,84.951947,37.935411,40.629575,1.328396
STILL,aom,av2,0,F1,landscape_18.y4m,4032x3024,25,8,160,0, KEY ,1,160,108576,33.234824,46.579689,48.442029,22.843279,14.125187,71.484310,69.374127,33.095711,38.133984,1.465787
STILL,aom,av2,0,F1,landscape_18.y4m,4032x3024,25,8,185,0, KEY ,1,185,41356,30.435183,44.213532,45.810100,17.690484,11.300078,49.845259,47.802406,28.742528,35.577330,1.840602
STILL,aom,av2,0,F1,landscape_25.y4m,4032x3024,25,8,60,0, KEY ,1,60,5116923,48.812666,49.568101,51.230870,41.921011,31.278678,96.485751,95.618561,53.240925,47.289932,0.005707
STILL,aom,av2,0,F1,landscape_25.y4m,4032x3024,25,8,85,0, KEY ,1,85,3165508,42.973436,45.910396,49.052156,36.505728,25.205251,94.950475,93.768856,48.440201,42.960410,0.008611
STILL,aom,av2,0,F1,landscape_25.y4m,4032x3024,25,8,110,0, KEY ,1,110,1579890,37.150264,44.253311,47.837897,30.341361,19.097368,91.964804,90.025456,41.865077,39.419610,0.020445
STILL,aom,av2,0,F1,landscape_25.y4m,4032x3024,25,8,135,0, KEY ,1,135,547130,32.441168,43.028147,46.519912,24.490585,13.219491,82.472201,80.312366,34.593490,36.077066,0.415033
STILL,aom,av2,0,F1,landscape_25.y4m,4032x3024,25,8,160,0, KEY ,1,160,115939,29.223869,41.729419,45.028244,18.764949,8.360630,64.083326,62.252082,28.608184,33.435166,3.708013
STILL,aom,av2,0,F1,landscape_25.y4m,4032x3024,25,8,185,0, KEY ,1,185,30560,27.852741,40.447406,43.216248,14.616282,6.560244,44.669351,43.517301,26.011257,32.092399,7.261867
STILL,aom,av2,0,F1,landscape_26.y4m,4032x3024,25,8,60,0, KEY ,1,60,3068125,49.173345,53.387753,53.521561,43.519811,29.922750,96.874584,95.958999,51.013410,50.258105,0.517099
STILL,aom,av2,0,F1,landscape_26.y4m,4032x3024,25,8,85,0, KEY ,1,85,1666733,43.805760,51.597850,51.762422,37.729335,24.733478,95.834840,94.561556,47.090083,46.071760,0.666136
STILL,aom,av2,0,F1,landscape_26.y4m,4032x3024,25,8,110,0, KEY ,1,110,744055,39.089421,49.953270,50.186108,32.778748,20.388682,93.089268,91.316297,42.443632,42.408807,0.688396
STILL,aom,av2,0,F1,landscape_26.y4m,4032x3024,25,8,135,0, KEY ,1,135,303737,35.654236,48.204046,48.448576,27.854978,16.891450,85.729659,83.450798,37.339408,39.633155,0.742601
STILL,aom,av2,0,F1,landscape_26.y4m,4032x3024,25,8,160,0, KEY ,1,160,131274,32.787784,46.014592,46.143572,22.780515,13.831747,69.582120,67.294346,32.534289,37.155842,0.787216
STILL,aom,av2,0,F1,landscape_26.y4m,4032x3024,25,8,185,0, KEY ,1,185,51442,29.748522,43.270803,43.775900,17.503332,10.604854,46.050240,43.979454,27.846107,34.464872,0.838423
STILL,aom,av2,0,F1,landscape_28.y4m,4032x3024,25,8,60,0, KEY ,1,60,3367738,49.014897,51.541907,53.287028,40.363540,29.671602,97.063358,96.465529,51.228109,50.577719,0.319717
STILL,aom,av2,0,F1,landscape_28.y4m,4032x3024,25,8,85,0, KEY ,1,85,1834391,43.705351,48.443168,50.358715,34.287704,24.131921,96.372775,95.466157,46.919317,46.547137,1.730317
STILL,aom,av2,0,F1,landscape_28.y4m,4032x3024,25,8,110,0, KEY ,1,110,913606,39.220273,45.769175,47.648334,30.295678,19.380968,94.387176,93.125194,41.357364,43.109607,4.807134
STILL,aom,av2,0,F1,landscape_28.y4m,4032x3024,25,8,135,0, KEY ,1,135,422036,35.466930,43.210743,45.099510,27.247306,16.592030,89.218093,87.432499,37.037583,40.088129,9.955869
STILL,aom,av2,0,F1,landscape_28.y4m,4032x3024,25,8,160,0, KEY ,1,160,192605,32.164874,40.831299,42.595858,23.858771,14.544370,77.057417,74.882694,32.429471,37.246787,10.239641
STILL,aom,av2,0,F1,landscape_28.y4m,4032x3024,25,8,185,0, KEY ,1,185,84323,28.941517,38.633767,40.361048,18.867438,12.004933,56.320059,54.374643,27.429219,34.446371,9.054716
STILL,aom,av2,0,F1,lodge.y4m,6000x4000,25,8,60,0, KEY ,1,60,6877807,48.827097,51.626355,51.949025,45.783162,30.014764,96.525817,95.583346,51.505281,49.807114,0.000009
STILL,aom,av2,0,F1,lodge.y4m,6000x4000,25,8,85,0, KEY ,1,85,3681772,43.714412,48.030799,48.695225,39.752769,24.590401,95.014326,93.754132,47.111080,45.073690,0.008355
STILL,aom,av2,0,F1,lodge.y4m,6000x4000,25,8,110,0, KEY ,1,110,1736853,39.347600,44.702168,45.756368,34.523248,19.938075,91.576588,89.916241,41.987711,41.186919,0.404266
STILL,aom,av2,0,F1,lodge.y4m,6000x4000,25,8,135,0, KEY ,1,135,831659,35.739345,41.567429,43.121757,29.064269,16.605630,83.071993,81.019638,36.694884,38.067975,0.823056
STILL,aom,av2,0,F1,lodge.y4m,6000x4000,25,8,160,0, KEY ,1,160,360643,32.062966,38.735835,40.779799,23.562518,13.165437,63.688229,61.842721,31.088507,34.967909,1.151013
STILL,aom,av2,0,F1,lodge.y4m,6000x4000,25,8,185,0, KEY ,1,185,124946,28.589156,36.280236,38.806543,18.147462,9.723741,34.293967,33.136107,25.977888,32.022521,1.437120
STILL,aom,av2,0,F1,party.y4m,6720x4480,25,8,60,0, KEY ,1,60,5056998,48.763730,57.125246,57.385483,44.899201,27.462464,96.763683,96.114196,49.724302,50.760407,0.000011
STILL,aom,av2,0,F1,party.y4m,6720x4480,25,8,85,0, KEY ,1,85,1413426,43.447040,55.462475,55.730984,38.332555,21.250818,96.367686,95.457169,44.686380,45.579329,0.408447
STILL,aom,av2,0,F1,party.y4m,6720x4480,25,8,110,0, KEY ,1,110,231832,41.135699,53.596683,53.907371,32.222946,17.999803,95.040482,93.756813,41.135382,43.273679,7.110124
STILL,aom,av2,0,F1,party.y4m,6720x4480,25,8,135,0, KEY ,1,135,86906,40.243541,51.373418,51.782814,27.461823,16.850779,91.076373,89.384250,39.486082,42.375694,9.513791
STILL,aom,av2,0,F1,party.y4m,6720x4480,25,8,160,0, KEY ,1,160,41613,39.212196,48.067386,48.393531,23.570168,16.035920,83.289409,81.225192,37.746007,41.056991,10.261191
STILL,aom,av2,0,F1,party.y4m,6720x4480,25,8,185,0, KEY ,1,185,19746,37.572454,44.740849,45.377041,20.052271,14.983036,69.522442,67.338221,35.187164,39.593229,10.375731
STILL,aom,av2,0,F1,river.y4m,5184x3456,25,8,60,0, KEY ,1,60,2572948,48.811393,53.299525,54.075078,46.403887,28.238061,95.801395,94.811506,50.090532,48.629954,0.000043
STILL,aom,av2,0,F1,river.y4m,5184x3456,25,8,85,0, KEY ,1,85,694942,44.396553,50.582435,51.895179,40.184339,22.624109,94.005181,92.532964,45.285993,44.753920,0.184878
STILL,aom,av2,0,F1,river.y4m,5184x3456,25,8,110,0, KEY ,1,110,278324,42.785144,47.842556,50.043661,34.161039,20.245279,90.374656,88.384991,41.940353,42.999773,0.452492
STILL,aom,av2,0,F1,river.y4m,5184x3456,25,8,135,0, KEY ,1,135,137010,40.946163,44.964021,48.125579,28.478146,18.054180,81.689608,79.573174,38.532321,41.174015,0.724004
STILL,aom,av2,0,F1,river.y4m,5184x3456,25,8,160,0, KEY ,1,160,66197,38.357981,42.147201,46.062786,23.376430,15.498540,65.417312,63.432548,34.792703,38.872221,0.942763
STILL,aom,av2,0,F1,river.y4m,5184x3456,25,8,185,0, KEY ,1,185,29668,35.259828,39.561700,44.032648,18.665204,12.694657,42.128907,40.577520,31.096315,36.327785,1.349923
STILL,aom,av2,0,F1,santa.y4m,5616x3744,25,8,60,0, KEY ,1,60,2653610,48.960230,54.280177,53.695001,45.705434,27.904333,96.286361,95.414658,49.606149,51.358045,0.273233
STILL,aom,av2,0,F1,santa.y4m,5616x3744,25,8,85,0, KEY ,1,85,681408,44.697822,52.088844,51.482809,38.945091,22.592443,94.726174,93.550352,45.164325,47.282941,2.429037
STILL,aom,av2,0,F1,santa.y4m,5616x3744,25,8,110,0, KEY ,1,110,254695,43.123794,50.080829,49.204118,34.287009,20.612220,90.958402,89.443536,42.563048,45.560927,3.051285
STILL,aom,av2,0,F1,santa.y4m,5616x3744,25,8,135,0, KEY ,1,135,121936,41.470270,47.717942,46.432444,29.463322,18.673794,83.300308,81.397126,39.618993,43.778406,3.119160
STILL,aom,av2,0,F1,santa.y4m,5616x3744,25,8,160,0, KEY ,1,160,58015,39.248880,44.888917,43.295946,24.501737,16.327010,68.481685,66.380133,36.235186,41.463342,3.272957
STILL,aom,av2,0,F1,santa.y4m,5616x3744,25,8,185,0, KEY ,1,185,26597,36.624537,41.611228,39.799023,19.555013,13.867309,45.513451,43.446514,32.802922,38.637998,3.328853
STILL,aom,av2,0,F1,seafood.y4m,5184x3456,25,8,60,0, KEY ,1,60,4615001,48.719194,52.831218,52.981479,47.885572,29.814570,96.607361,95.784114,51.724247,49.233729,0.000000
STILL,aom,av2,0,F1,seafood.y4m,5184x3456,25,8,85,0, KEY ,1,85,2110865,43.161247,49.858199,50.200138,41.602619,23.631144,95.270272,94.110124,46.577183,44.552865,0.079916
STILL,aom,av2,0,F1,seafood.y4m,5184x3456,25,8,110,0, KEY ,1,110,737868,39.330139,47.035513,47.653143,35.495834,19.076373,92.159643,90.572613,41.236394,41.231217,1.173663
STILL,aom,av2,0,F1,seafood.y4m,5184x3456,25,8,135,0, KEY ,1,135,341497,36.928180,44.148639,44.976957,30.342481,16.910801,84.932361,82.916578,37.089760,38.999895,1.331907
STILL,aom,av2,0,F1,seafood.y4m,5184x3456,25,8,160,0, KEY ,1,160,155175,34.144835,41.312907,42.158043,25.245442,14.252579,69.789440,67.503141,32.373952,36.521507,1.524932
STILL,aom,av2,0,F1,seafood.y4m,5184x3456,25,8,185,0, KEY ,1,185,64406,31.120851,38.483406,39.345047,20.017356,11.275566,45.331283,43.407781,27.921346,33.844204,1.506083
STILL,aom,av2,0,F1,snow_00.y4m,4032x3024,25,8,60,0, KEY ,1,60,3762671,48.735362,53.872250,54.464856,43.821107,29.308187,96.853869,96.089910,51.994508,50.757598,0.000000
STILL,aom,av2,0,F1,snow_00.y4m,4032x3024,25,8,85,0, KEY ,1,85,2039362,42.867464,51.044780,51.857261,37.603794,23.045410,95.982431,94.951531,46.638463,45.840960,0.000007
STILL,aom,av2,0,F1,snow_00.y4m,4032x3024,25,8,110,0, KEY ,1,110,732094,37.693175,48.936116,49.909075,31.472066,16.940268,93.900578,92.476017,40.223643,41.648537,0.000288
STILL,aom,av2,0,F1,snow_00.y4m,4032x3024,25,8,135,0, KEY ,1,135,223142,34.902596,47.069912,48.395653,26.799080,14.009395,87.777455,85.957904,36.151279,39.281372,0.040422
STILL,aom,av2,0,F1,snow_00.y4m,4032x3024,25,8,160,0, KEY ,1,160,100958,33.052756,45.023429,46.536281,22.496191,12.608576,74.178018,72.316130,32.828227,37.578979,0.049291
STILL,aom,av2,0,F1,snow_00.y4m,4032x3024,25,8,185,0, KEY ,1,185,45415,30.724293,42.943379,44.290508,17.867633,10.901481,53.499881,51.944719,28.904588,35.691413,0.063761
STILL,aom,av2,0,F1,trees.y4m,4928x3264,25,8,60,0, KEY ,1,60,3439164,49.113689,52.730813,52.712192,47.128365,31.398629,96.813578,96.056315,52.776730,48.267492,0.000240
STILL,aom,av2,0,F1,trees.y4m,4928x3264,25,8,85,0, KEY ,1,85,1808256,44.733688,49.651326,49.648831,41.295505,26.380358,95.966120,94.696298,48.032410,44.436345,0.001609
STILL,aom,av2,0,F1,trees.y4m,4928x3264,25,8,110,0, KEY ,1,110,949565,40.930594,46.565067,46.818984,35.324901,21.739871,93.400957,91.530934,42.294897,41.220122,0.005919
STILL,aom,av2,0,F1,trees.y4m,4928x3264,25,8,135,0, KEY ,1,135,488059,37.107261,43.462726,44.151933,29.123098,17.221229,86.082343,83.827719,36.356394,38.002971,0.025181
STILL,aom,av2,0,F1,trees.y4m,4928x3264,25,8,160,0, KEY ,1,160,235168,33.264658,40.636728,42.187052,22.948924,13.078271,69.612901,67.508745,30.949620,34.817242,0.114513
STILL,aom,av2,0,F1,trees.y4m,4928x3264,25,8,185,0, KEY ,1,185,100541,29.521619,38.271630,40.290897,17.045325,9.531075,46.044727,44.563246,26.182255,31.808577,0.535120
STILL,aom,av2,0,F1,underwater_01.y4m,4032x3024,25,8,60,0, KEY ,1,60,3570621,48.701871,50.961316,51.700406,48.233194,31.222838,96.543158,95.668843,53.306662,48.992695,0.000899
STILL,aom,av2,0,F1,underwater_01.y4m,4032x3024,25,8,85,0, KEY ,1,85,1754305,43.018699,48.225580,49.161916,42.203985,25.282970,94.794380,93.722632,47.916148,44.518877,0.013451
STILL,aom,av2,0,F1,underwater_01.y4m,4032x3024,25,8,110,0, KEY ,1,110,694936,38.795536,45.389730,46.553908,36.001284,20.458541,91.122811,89.593828,41.508206,40.924926,0.030273
STILL,aom,av2,0,F1,underwater_01.y4m,4032x3024,25,8,135,0, KEY ,1,135,296526,36.037678,42.214252,43.856793,29.950381,17.110781,82.059042,80.181532,35.984166,38.269650,0.048227
STILL,aom,av2,0,F1,underwater_01.y4m,4032x3024,25,8,160,0, KEY ,1,160,140989,33.489049,38.872655,41.068630,23.913114,13.877930,63.165979,61.458223,31.203381,35.695619,0.073563
STILL,aom,av2,0,F1,underwater_01.y4m,4032x3024,25,8,185,0, KEY ,1,185,61971,30.418722,35.597490,38.354868,17.984787,10.395487,35.639803,34.545719,26.752298,32.783956,0.189079
STILL,aom,av2,0,F2,Adventure_with_the_Windmills.y4m,896x1110,24,8,60,0, KEY ,1,60,583057,48.820385,52.634340,54.202496,39.573135,36.788868,96.972966,96.150912,54.638911,48.383141,0.005264
STILL,aom,av2,0,F2,Adventure_with_the_Windmills.y4m,896x1110,24,8,85,0, KEY ,1,85,437848,43.175883,52.206992,53.759381,33.587872,31.117553,96.213458,94.958578,52.301132,44.822446,0.004275
STILL,aom,av2,0,F2,Adventure_with_the_Windmills.y4m,896x1110,24,8,110,0, KEY ,1,110,310622,37.243679,51.792270,52.897669,27.361269,25.026184,93.471331,92.036482,46.884870,40.274385,0.007153
STILL,aom,av2,0,F2,Adventure_with_the_Windmills.y4m,896x1110,24,8,135,0, KEY ,1,135,197704,31.475703,50.425796,51.549776,21.123529,19.069090,87.479618,85.475813,38.570031,35.133953,0.010476
STILL,aom,av2,0,F2,Adventure_with_the_Windmills.y4m,896x1110,24,8,160,0, KEY ,1,160,102037,25.866919,47.805230,50.397916,15.187493,13.545085,70.827727,68.855694,30.357401,29.846040,0.005194
STILL,aom,av2,0,F2,Adventure_with_the_Windmills.y4m,896x1110,24,8,185,0, KEY ,1,185,30889,20.801740,48.356308,46.585001,10.238762,8.685874,42.285621,40.804164,23.388817,24.928712,0.002610
STILL,aom,av2,0,F2,Agapanthus_Postbloom2.y4m,1208x948,24,8,60,0, KEY ,1,60,142583,49.523739,50.619141,50.340466,34.330994,30.068420,96.992168,96.313537,50.286955,48.509451,2.629275
STILL,aom,av2,0,F2,Agapanthus_Postbloom2.y4m,1208x948,24,8,85,0, KEY ,1,85,74524,46.788302,47.840096,48.617626,30.641313,27.625923,95.900728,94.917705,47.680603,45.958838,3.610746
STILL,aom,av2,0,F2,Agapanthus_Postbloom2.y4m,1208x948,24,8,110,0, KEY ,1,110,42330,43.743013,44.744008,46.797518,27.157191,25.150943,93.375992,92.033557,44.247794,43.381431,3.325668
STILL,aom,av2,0,F2,Agapanthus_Postbloom2.y4m,1208x948,24,8,135,0, KEY ,1,135,23650,40.030405,41.246187,44.672368,23.084976,21.899631,87.519239,85.638487,39.471326,40.342322,3.066582
STILL,aom,av2,0,F2,Agapanthus_Postbloom2.y4m,1208x948,24,8,160,0, KEY ,1,160,12677,36.044580,37.678038,42.427675,18.827475,18.225563,75.247998,72.770251,34.184183,36.926457,2.891710
STILL,aom,av2,0,F2,Agapanthus_Postbloom2.y4m,1208x948,24,8,185,0, KEY ,1,185,6357,31.941385,34.172692,40.245970,14.444674,14.328734,54.132435,51.579686,28.912329,33.419300,2.307865
STILL,aom,av2,0,F2,Baruch.y4m,968x1188,24,8,60,0, KEY ,1,60,637846,48.773432,52.683637,54.092409,37.557821,36.963538,96.916561,95.847738,53.967440,47.873602,0.000020
STILL,aom,av2,0,F2,Baruch.y4m,968x1188,24,8,85,0, KEY ,1,85,476296,43.222640,52.373364,53.775124,31.894103,31.890292,95.757268,94.367943,52.207717,44.561324,0.000103
STILL,aom,av2,0,F2,Baruch.y4m,968x1188,24,8,110,0, KEY ,1,110,335895,37.376148,51.862789,53.032012,26.126994,26.264159,93.092417,91.096513,48.248730,40.209419,0.000103
STILL,aom,av2,0,F2,Baruch.y4m,968x1188,24,8,135,0, KEY ,1,135,212148,31.675905,50.843043,52.071419,20.091907,20.229954,85.720025,83.132494,40.146412,35.374051,0.000018
STILL,aom,av2,0,F2,Baruch.y4m,968x1188,24,8,160,0, KEY ,1,160,108867,26.110860,50.820450,49.844839,14.099111,14.370337,68.033207,65.370320,31.235049,30.296857,0.000021
STILL,aom,av2,0,F2,Baruch.y4m,968x1188,24,8,185,0, KEY ,1,185,34108,21.159926,50.191431,48.696125,8.559386,8.826625,40.985438,39.241057,23.684428,25.473864,0.000012
STILL,aom,av2,0,F2,Berlin-Fernsehturm.y4m,1290x856,24,8,60,0, KEY ,1,60,112342,50.047424,51.342871,50.976952,29.417355,28.524834,96.842835,95.975364,48.752290,46.715542,1.837843
STILL,aom,av2,0,F2,Berlin-Fernsehturm.y4m,1290x856,24,8,85,0, KEY ,1,85,53399,46.963418,49.852369,48.944191,24.932359,24.915027,95.559095,94.454303,46.001726,44.810289,7.128717
STILL,aom,av2,0,F2,Berlin-Fernsehturm.y4m,1290x856,24,8,110,0, KEY ,1,110,26547,43.784370,48.258065,46.944190,21.563522,21.867253,92.701426,91.137320,42.997859,43.121144,8.454285
STILL,aom,av2,0,F2,Berlin-Fernsehturm.y4m,1290x856,24,8,135,0, KEY ,1,135,12543,40.365659,46.042507,44.569666,18.435940,18.872343,85.406875,83.592638,39.333355,41.150539,8.693341
STILL,aom,av2,0,F2,Berlin-Fernsehturm.y4m,1290x856,24,8,160,0, KEY ,1,160,5474,36.934295,43.660465,42.120982,15.332176,15.866523,70.848786,69.144529,35.300119,38.919039,9.002818
STILL,aom,av2,0,F2,Berlin-Fernsehturm.y4m,1290x856,24,8,185,0, KEY ,1,185,2117,33.696289,41.044700,39.716852,12.227272,12.818609,50.828752,48.479563,31.157230,36.306361,8.000724
STILL,aom,av2,0,F2,Big_Easy_chair.y4m,1196x1008,24,8,60,0, KEY ,1,60,124621,49.212399,48.880697,49.170132,32.305348,28.113265,96.888089,96.084922,48.874364,47.578005,0.003895
STILL,aom,av2,0,F2,Big_Easy_chair.y4m,1196x1008,24,8,85,0, KEY ,1,85,25532,46.196961,46.410853,47.529402,26.213373,23.580040,96.092874,94.908605,44.913089,44.954484,2.186165
STILL,aom,av2,0,F2,Big_Easy_chair.y4m,1196x1008,24,8,110,0, KEY ,1,110,10178,44.760349,45.678084,46.831280,22.637689,21.382962,94.003472,92.299117,42.572109,43.940933,4.592393
STILL,aom,av2,0,F2,Big_Easy_chair.y4m,1196x1008,24,8,135,0, KEY ,1,135,5053,43.158409,44.660939,45.797114,20.218204,19.687077,89.157595,86.926035,40.395011,42.820654,5.646577
STILL,aom,av2,0,F2,Big_Easy_chair.y4m,1196x1008,24,8,160,0, KEY ,1,160,2772,41.033543,43.052022,44.158695,17.902500,17.891262,81.010200,77.767856,37.789361,41.223097,5.854557
STILL,aom,av2,0,F2,Big_Easy_chair.y4m,1196x1008,24,8,185,0, KEY ,1,185,1510,38.097643,40.765275,42.058110,15.207462,15.526361,67.212066,63.743829,34.348019,39.031906,6.134397
STILL,aom,av2,0,F2,Butterfly.y4m,1420x918,24,8,60,0, KEY ,1,60,223888,49.143558,49.330274,50.757412,32.028693,28.176921,96.884000,96.137600,48.979483,45.989243,0.718980
STILL,aom,av2,0,F2,Butterfly.y4m,1420x918,24,8,85,0, KEY ,1,85,73338,44.553035,46.412038,48.339038,26.813100,23.482003,96.122506,95.002065,45.609198,43.104235,11.693361
STILL,aom,av2,0,F2,Butterfly.y4m,1420x918,24,8,110,0, KEY ,1,110,24085,41.988321,44.992011,46.628011,23.276429,20.522551,93.669071,92.176682,42.364367,41.605318,11.605778
STILL,aom,av2,0,F2,Butterfly.y4m,1420x918,24,8,135,0, KEY ,1,135,10688,40.187890,43.393819,44.725256,20.975244,19.067667,88.310682,86.273740,39.763405,40.519787,11.481439
STILL,aom,av2,0,F2,Butterfly.y4m,1420x918,24,8,160,0, KEY ,1,160,5415,38.100769,41.356387,42.629216,18.816936,17.606521,77.602102,75.360819,36.544428,39.056735,10.850483
STILL,aom,av2,0,F2,Butterfly.y4m,1420x918,24,8,185,0, KEY ,1,185,2871,35.423148,38.830578,39.761086,16.332802,15.689295,60.835097,58.254671,32.551974,36.953715,8.816849
STILL,aom,av2,0,F2,Cecret_Lake_Panorama.y4m,1586x752,24,8,60,0, KEY ,1,60,570887,49.458903,49.897393,49.769054,34.027481,32.832240,96.879527,95.969081,52.971687,47.232509,0.009158
STILL,aom,av2,0,F2,Cecret_Lake_Panorama.y4m,1586x752,24,8,85,0, KEY ,1,85,385685,44.006958,45.120008,45.444081,28.839784,28.054761,95.727704,94.516098,48.941330,42.418854,0.038019
STILL,aom,av2,0,F2,Cecret_Lake_Panorama.y4m,1586x752,24,8,110,0, KEY ,1,110,245237,38.306791,41.530366,42.681733,23.904455,23.388062,92.692350,91.210162,43.661500,38.264720,0.059657
STILL,aom,av2,0,F2,Cecret_Lake_Panorama.y4m,1586x752,24,8,135,0, KEY ,1,135,131427,32.428145,38.942662,40.429489,18.665756,18.353692,84.691244,82.965048,36.984016,34.057074,0.098943
STILL,aom,av2,0,F2,Cecret_Lake_Panorama.y4m,1586x752,24,8,160,0, KEY ,1,160,45119,27.242843,37.014259,38.636689,13.615607,13.296750,67.053563,65.080006,30.095471,30.112453,0.113214
STILL,aom,av2,0,F2,Cecret_Lake_Panorama.y4m,1586x752,24,8,185,0, KEY ,1,185,12056,24.173810,35.270961,36.676684,8.900945,9.012524,37.122679,35.817437,24.031876,27.354629,0.195227
STILL,aom,av2,0,F2,Claudette.y4m,900x1100,24,8,60,0, KEY ,1,60,417933,49.215919,50.576429,50.804332,37.001940,32.721783,96.696784,95.783056,53.227558,46.111619,0.032902
STILL,aom,av2,0,F2,Claudette.y4m,900x1100,24,8,85,0, KEY ,1,85,280247,43.531478,48.562815,49.083353,30.969674,27.184046,95.291397,94.043350,49.028172,42.706918,0.103996
STILL,aom,av2,0,F2,Claudette.y4m,900x1100,24,8,110,0, KEY ,1,110,170678,37.934741,46.985219,47.630359,25.000018,21.648971,91.403097,89.941667,42.999064,39.045131,0.170236
STILL,aom,av2,0,F2,Claudette.y4m,900x1100,24,8,135,0, KEY ,1,135,87076,32.609425,45.169002,46.090437,19.167043,16.556843,81.700910,80.012237,36.144752,34.956039,0.209033
STILL,aom,av2,0,F2,Claudette.y4m,900x1100,24,8,160,0, KEY ,1,160,28465,27.778954,42.848380,43.730559,14.017533,11.925094,60.692156,58.951316,29.663882,30.925911,0.251388
STILL,aom,av2,0,F2,Claudette.y4m,900x1100,24,8,185,0, KEY ,1,185,7385,24.997833,41.026084,42.029349,9.373870,8.120282,30.374804,29.303239,24.298025,28.305770,0.664978
STILL,aom,av2,0,F2,Collage_Oppeln.y4m,904x1280,24,8,60,0, KEY ,1,60,338691,49.466660,50.073679,50.660784,36.220090,31.856406,97.018412,96.278718,51.768949,47.113902,0.031012
STILL,aom,av2,0,F2,Collage_Oppeln.y4m,904x1280,24,8,85,0, KEY ,1,85,205344,44.603570,46.609756,47.404120,31.360878,27.691755,96.106726,95.071413,48.297277,43.304668,0.101033
STILL,aom,av2,0,F2,Collage_Oppeln.y4m,904x1280,24,8,110,0, KEY ,1,110,116838,39.709865,43.583656,44.465251,26.558496,23.423564,93.786559,92.353343,43.479591,39.919276,0.158447
STILL,aom,av2,0,F2,Collage_Oppeln.y4m,904x1280,24,8,135,0, KEY ,1,135,59184,35.020561,40.732421,41.522753,21.718760,19.131382,87.998953,86.057171,37.580205,36.544946,0.141264
STILL,aom,av2,0,F2,Collage_Oppeln.y4m,904x1280,24,8,160,0, KEY ,1,160,26277,30.859533,38.034796,38.873123,17.086223,15.142294,74.974118,72.858701,31.657988,33.315371,0.128201
STILL,aom,av2,0,F2,Collage_Oppeln.y4m,904x1280,24,8,185,0, KEY ,1,185,10063,27.259144,35.474434,36.257712,12.448766,11.265679,52.595610,50.529018,26.095890,30.194445,0.140780
STILL,aom,av2,0,F2,Corona_Arch.y4m,1272x922,24,8,60,0, KEY ,1,60,378468,49.134346,49.452060,49.809731,33.848649,29.862229,96.752606,95.811153,50.979321,50.471639,0.000119
STILL,aom,av2,0,F2,Corona_Arch.y4m,1272x922,24,8,85,0, KEY ,1,85,199765,43.720410,46.942625,45.800714,27.536483,24.249454,95.613943,94.311285,46.444503,45.647526,1.760875
STILL,aom,av2,0,F2,Corona_Arch.y4m,1272x922,24,8,110,0, KEY ,1,110,101309,39.102748,44.966328,42.424332,23.642741,20.890978,92.453385,90.799616,42.644084,42.070098,5.243593
STILL,aom,av2,0,F2,Corona_Arch.y4m,1272x922,24,8,135,0, KEY ,1,135,41761,34.847386,42.938617,39.549502,19.824991,17.149336,84.346148,82.374151,37.148659,38.842312,5.264327
STILL,aom,av2,0,F2,Corona_Arch.y4m,1272x922,24,8,160,0, KEY ,1,160,14828,31.491017,40.671719,37.046856,15.267308,13.310217,66.146380,64.054921,31.430081,36.137541,5.128120
STILL,aom,av2,0,F2,Corona_Arch.y4m,1272x922,24,8,185,0, KEY ,1,185,4846,28.884031,37.932935,34.686135,11.225861,10.120172,38.608030,37.091637,26.884550,33.795962,6.060942
STILL,aom,av2,0,F2,Correfocs_Festa_Major_del_Clot.y4m,1306x870,24,8,60,0, KEY ,1,60,243182,49.235324,50.350387,50.043451,30.954168,29.465773,96.643521,95.652924,50.526497,49.401576,0.251908
STILL,aom,av2,0,F2,Correfocs_Festa_Major_del_Clot.y4m,1306x870,24,8,85,0, KEY ,1,85,123184,45.041931,47.768772,46.702465,25.636364,24.900582,94.917895,93.672162,46.539838,45.874135,1.415029
STILL,aom,av2,0,F2,Correfocs_Festa_Major_del_Clot.y4m,1306x870,24,8,110,0, KEY ,1,110,66359,41.374640,45.335224,43.555986,21.492094,21.350439,90.837204,89.186947,42.352295,43.000568,1.789894
STILL,aom,av2,0,F2,Correfocs_Festa_Major_del_Clot.y4m,1306x870,24,8,135,0, KEY ,1,135,34099,37.395848,43.053124,40.329027,17.324737,17.607900,81.828629,79.634283,37.501495,39.993124,1.995173
STILL,aom,av2,0,F2,Correfocs_Festa_Major_del_Clot.y4m,1306x870,24,8,160,0, KEY ,1,160,15333,33.330046,40.766804,37.181500,13.192500,13.794309,63.872789,61.610701,32.453021,36.897548,1.629060
STILL,aom,av2,0,F2,Correfocs_Festa_Major_del_Clot.y4m,1306x870,24,8,185,0, KEY ,1,185,4626,29.313376,38.520965,33.873554,8.696770,9.561568,34.638329,33.408245,27.243050,33.738835,1.929965
STILL,aom,av2,0,F2,Crepuscular_rays_at_Sunset_near_Waterberg_Plateau.y4m,1402x934,24,8,60,0, KEY ,1,60,402321,49.375051,50.057264,50.032404,34.589024,30.509895,96.059079,94.850866,51.969542,47.728137,0.197168
STILL,aom,av2,0,F2,Crepuscular_rays_at_Sunset_near_Waterberg_Plateau.y4m,1402x934,24,8,85,0, KEY ,1,85,235743,44.393666,46.747802,46.459738,29.003551,25.757875,93.775152,92.269466,47.831489,43.648771,0.491415
STILL,aom,av2,0,F2,Crepuscular_rays_at_Sunset_near_Waterberg_Plateau.y4m,1402x934,24,8,110,0, KEY ,1,110,119937,39.077582,44.128590,43.664469,23.527502,20.704825,88.054532,86.314368,42.270589,39.941561,0.511822
STILL,aom,av2,0,F2,Crepuscular_rays_at_Sunset_near_Waterberg_Plateau.y4m,1402x934,24,8,135,0, KEY ,1,135,40453,34.256348,41.704648,41.205517,17.774331,15.315998,74.331128,72.535575,35.788168,36.368618,0.643374
STILL,aom,av2,0,F2,Crepuscular_rays_at_Sunset_near_Waterberg_Plateau.y4m,1402x934,24,8,160,0, KEY ,1,160,10518,31.272564,39.462785,39.058768,12.601280,11.091695,47.901812,46.505569,30.593781,33.767507,0.754958
STILL,aom,av2,0,F2,Crepuscular_rays_at_Sunset_near_Waterberg_Plateau.y4m,1402x934,24,8,185,0, KEY ,1,185,3021,29.493243,36.969624,36.658719,8.844313,8.352126,17.497429,16.648857,27.193430,31.762963,1.101939
STILL,aom,av2,0,F2,Esquibien_Jean_Perrot.y4m,818x1228,24,8,60,0, KEY ,1,60,385435,49.219091,50.680089,50.671450,32.537690,31.363062,96.910724,96.084096,51.939697,47.105773,0.505083
STILL,aom,av2,0,F2,Esquibien_Jean_Perrot.y4m,818x1228,24,8,85,0, KEY ,1,85,243973,43.689473,48.153918,47.942632,26.932538,26.061895,95.867481,94.748557,48.016291,43.392275,0.792145
STILL,aom,av2,0,F2,Esquibien_Jean_Perrot.y4m,818x1228,24,8,110,0, KEY ,1,110,136983,37.986590,46.624538,46.261631,22.036051,21.215520,93.500655,91.926656,43.073315,39.680400,0.707538
STILL,aom,av2,0,F2,Esquibien_Jean_Perrot.y4m,818x1228,24,8,135,0, KEY ,1,135,51618,32.646106,45.099060,44.750609,16.463134,15.623852,86.972240,84.876802,36.324025,35.621270,0.506621
STILL,aom,av2,0,F2,Esquibien_Jean_Perrot.y4m,818x1228,24,8,160,0, KEY ,1,160,15407,29.451569,43.163858,43.047133,11.859901,11.541051,72.220560,69.826230,30.436863,32.885262,0.631184
STILL,aom,av2,0,F2,Esquibien_Jean_Perrot.y4m,818x1228,24,8,185,0, KEY ,1,185,5785,27.443453,40.501249,40.543355,9.369759,9.523447,51.736331,49.242379,26.586422,30.899950,1.251925
STILL,aom,av2,0,F2,Florac-Le_Vibron-Source_du_Pecher.y4m,1080x874,24,8,60,0, KEY ,1,60,475856,49.270843,49.011054,48.933894,34.188793,32.930089,96.937087,96.165438,53.643663,45.710924,0.024126
STILL,aom,av2,0,F2,Florac-Le_Vibron-Source_du_Pecher.y4m,1080x874,24,8,85,0, KEY ,1,85,296915,43.329585,44.351850,44.278775,28.371165,27.191553,95.964688,94.841965,48.821957,40.842565,0.251052
STILL,aom,av2,0,F2,Florac-Le_Vibron-Source_du_Pecher.y4m,1080x874,24,8,110,0, KEY ,1,110,166998,37.520395,41.434513,41.639332,22.446665,21.404114,93.390388,91.877045,42.730675,37.235857,0.377464
STILL,aom,av2,0,F2,Florac-Le_Vibron-Source_du_Pecher.y4m,1080x874,24,8,135,0, KEY ,1,135,81782,32.463314,39.412384,39.959428,16.986276,16.407973,86.236329,84.241142,36.072683,33.874164,0.500473
STILL,aom,av2,0,F2,Florac-Le_Vibron-Source_du_Pecher.y4m,1080x874,24,8,160,0, KEY ,1,160,31243,28.134664,37.580929,38.339831,12.071603,11.974337,70.339694,68.158646,29.793048,30.689090,0.959766
STILL,aom,av2,0,F2,Florac-Le_Vibron-Source_du_Pecher.y4m,1080x874,24,8,185,0, KEY ,1,185,8754,24.819936,35.494395,36.557233,7.810019,8.190476,44.311725,42.742337,24.351744,28.051442,0.807972
STILL,aom,av2,0,F2,Fontaine_Place_Stanislas.y4m,1390x820,24,8,60,0, KEY ,1,60,285862,49.566453,49.381217,50.801619,31.229385,30.172524,96.958108,96.178826,50.523861,46.137759,5.502115
STILL,aom,av2,0,F2,Fontaine_Place_Stanislas.y4m,1390x820,24,8,85,0, KEY ,1,85,168054,44.999181,46.326801,47.989437,27.104777,26.208287,95.953990,94.821561,47.557814,43.151654,6.533187
STILL,aom,av2,0,F2,Fontaine_Place_Stanislas.y4m,1390x820,24,8,110,0, KEY ,1,110,95877,40.456950,43.370925,45.785597,22.544707,22.139477,93.216199,91.643731,43.120141,40.423607,6.722583
STILL,aom,av2,0,F2,Fontaine_Place_Stanislas.y4m,1390x820,24,8,135,0, KEY ,1,135,50555,35.915584,40.821341,43.822877,18.131440,18.201037,86.066043,84.174021,37.894268,37.615914,6.788055
STILL,aom,av2,0,F2,Fontaine_Place_Stanislas.y4m,1390x820,24,8,160,0, KEY ,1,160,21969,31.477468,38.474952,41.883360,14.453926,14.729181,71.218695,69.046525,32.598388,34.651796,7.764188
STILL,aom,av2,0,F2,Fontaine_Place_Stanislas.y4m,1390x820,24,8,185,0, KEY ,1,185,7399,27.806333,36.186596,40.015543,10.839681,11.295168,46.111016,44.268861,27.121922,31.680935,6.746569
STILL,aom,av2,0,F2,Genmaicha_Tea.y4m,1260x840,24,8,60,0, KEY ,1,60,102409,50.511654,52.114309,51.874032,31.521024,30.809495,97.010266,96.258976,48.447772,49.635232,0.000403
STILL,aom,av2,0,F2,Genmaicha_Tea.y4m,1260x840,24,8,85,0, KEY ,1,85,58963,47.822746,50.181968,49.912916,29.284497,28.923039,96.201740,95.164000,47.262955,47.817087,0.002134
STILL,aom,av2,0,F2,Genmaicha_Tea.y4m,1260x840,24,8,110,0, KEY ,1,110,34477,44.159726,48.245052,48.048891,26.965877,26.851953,94.195799,92.823053,45.552635,45.961517,0.003437
STILL,aom,av2,0,F2,Genmaicha_Tea.y4m,1260x840,24,8,135,0, KEY ,1,135,18297,39.873849,46.268779,45.664463,24.133192,24.095291,89.467417,87.524730,41.921873,43.719728,0.000347
STILL,aom,av2,0,F2,Genmaicha_Tea.y4m,1260x840,24,8,160,0, KEY ,1,160,8602,35.748657,44.011821,42.758063,20.681193,20.745307,78.583238,76.544292,36.488988,41.152824,0.002232
STILL,aom,av2,0,F2,Genmaicha_Tea.y4m,1260x840,24,8,185,0, KEY ,1,185,3561,31.999559,41.561561,40.072611,16.926589,17.068780,59.242711,56.699154,30.833645,37.857585,0.001227
STILL,aom,av2,0,F2,Homestead_in_Montana.y4m,1326x826,24,8,60,0, KEY ,1,60,211914,49.350837,50.114798,50.565405,31.616494,30.241939,96.782621,95.833829,51.037447,49.181040,0.181585
STILL,aom,av2,0,F2,Homestead_in_Montana.y4m,1326x826,24,8,85,0, KEY ,1,85,113196,45.731537,46.912263,46.873430,28.153279,27.157975,95.619107,94.263847,48.121620,45.851560,0.511189
STILL,aom,av2,0,F2,Homestead_in_Montana.y4m,1326x826,24,8,110,0, KEY ,1,110,60100,41.847775,43.984826,43.425895,24.146488,23.657111,92.637548,90.843619,43.487715,42.775098,0.511791
STILL,aom,av2,0,F2,Homestead_in_Montana.y4m,1326x826,24,8,135,0, KEY ,1,135,29688,37.792166,40.845563,40.207541,19.522749,19.599486,84.985790,82.731403,37.565751,39.557514,0.508221
STILL,aom,av2,0,F2,Homestead_in_Montana.y4m,1326x826,24,8,160,0, KEY ,1,160,13836,34.058333,38.008606,37.023082,15.160577,15.667200,68.504263,66.253444,32.072782,36.474793,0.664471
STILL,aom,av2,0,F2,Homestead_in_Montana.y4m,1326x826,24,8,185,0, KEY ,1,185,5744,30.461486,35.263438,34.060799,10.943919,11.736292,42.671370,40.865214,27.066901,33.227581,0.771349
STILL,aom,av2,0,F2,Madeira_151_Funchal_Mercado_dos_Lavradores.y4m,1228x816,24,8,60,0, KEY ,1,60,328364,49.134963,49.175794,49.217117,35.009360,32.521502,96.922780,96.201566,53.890543,48.084731,0.308662
STILL,aom,av2,0,F2,Madeira_151_Funchal_Mercado_dos_Lavradores.y4m,1228x816,24,8,85,0, KEY ,1,85,178728,44.097542,44.926447,45.334051,29.338176,27.384813,95.867472,94.802014,48.931668,43.593174,0.380662
STILL,aom,av2,0,F2,Madeira_151_Funchal_Mercado_dos_Lavradores.y4m,1228x816,24,8,110,0, KEY ,1,110,93289,39.755152,41.221782,42.027624,24.095341,22.831681,93.047147,91.661370,42.692188,39.915404,0.363954
STILL,aom,av2,0,F2,Madeira_151_Funchal_Mercado_dos_Lavradores.y4m,1228x816,24,8,135,0, KEY ,1,135,45315,35.690504,37.812319,38.883683,18.984004,18.437264,85.977353,84.297159,36.203997,36.446709,0.419340
STILL,aom,av2,0,F2,Madeira_151_Funchal_Mercado_dos_Lavradores.y4m,1228x816,24,8,160,0, KEY ,1,160,20991,31.984943,34.675521,35.941830,14.385614,14.496675,69.880376,68.198977,30.379683,33.248751,0.668515
STILL,aom,av2,0,F2,Madeira_151_Funchal_Mercado_dos_Lavradores.y4m,1228x816,24,8,185,0, KEY ,1,185,8849,28.433596,31.751125,32.931173,10.104561,10.726085,45.232813,43.704279,25.299556,30.060056,0.933888
STILL,aom,av2,0,F2,Madeira_159_Funchal_Mercado_dos_Lavradores.y4m,1228x816,24,8,60,0, KEY ,1,60,499812,49.174052,49.219790,49.055139,36.412944,34.201583,97.071667,96.417276,54.225773,46.142963,0.005563
STILL,aom,av2,0,F2,Madeira_159_Funchal_Mercado_dos_Lavradores.y4m,1228x816,24,8,85,0, KEY ,1,85,320976,43.428555,44.846906,44.271098,30.597131,28.672562,96.315358,95.304365,49.624303,41.539534,0.054582
STILL,aom,av2,0,F2,Madeira_159_Funchal_Mercado_dos_Lavradores.y4m,1228x816,24,8,110,0, KEY ,1,110,185009,37.801285,41.005449,40.506721,24.716810,23.053303,94.122609,92.740265,43.408494,37.466067,0.085665
STILL,aom,av2,0,F2,Madeira_159_Funchal_Mercado_dos_Lavradores.y4m,1228x816,24,8,135,0, KEY ,1,135,91534,32.798332,37.449312,37.357021,19.170399,18.040906,88.285351,86.445255,36.585663,33.638533,0.181787
STILL,aom,av2,0,F2,Madeira_159_Funchal_Mercado_dos_Lavradores.y4m,1228x816,24,8,160,0, KEY ,1,160,39370,28.596352,34.435086,34.591788,14.955575,14.388332,74.667807,72.654762,30.556216,30.340822,0.524089
STILL,aom,av2,0,F2,Madeira_159_Funchal_Mercado_dos_Lavradores.y4m,1228x816,24,8,185,0, KEY ,1,185,14690,25.044828,31.883104,31.961946,11.032549,10.943328,52.667198,50.842420,24.788962,27.412933,0.532306
STILL,aom,av2,0,F2,MagicKindom.y4m,1000x1000,24,8,60,0, KEY ,1,60,568929,49.195649,48.793380,48.886005,39.037432,34.764463,96.922720,96.145195,55.007840,48.578198,0.000000
STILL,aom,av2,0,F2,MagicKindom.y4m,1000x1000,24,8,85,0, KEY ,1,85,367004,43.101713,43.944410,43.852510,32.638212,28.469570,96.021335,94.865791,49.684727,42.969790,0.000051
STILL,aom,av2,0,F2,MagicKindom.y4m,1000x1000,24,8,110,0, KEY ,1,110,219129,37.245030,41.282648,41.141149,26.335996,22.712687,93.200378,91.707732,43.398916,38.475179,0.497164
STILL,aom,av2,0,F2,MagicKindom.y4m,1000x1000,24,8,135,0, KEY ,1,135,109411,31.722631,39.156235,38.967846,20.823836,17.705626,86.060062,84.195905,36.576899,34.100687,0.761844
STILL,aom,av2,0,F2,MagicKindom.y4m,1000x1000,24,8,160,0, KEY ,1,160,40014,27.186130,37.143901,37.135916,15.721284,12.925157,70.107143,68.071992,29.657521,30.311530,0.729462
STILL,aom,av2,0,F2,MagicKindom.y4m,1000x1000,24,8,185,0, KEY ,1,185,12226,24.009649,35.092423,35.619658,10.589294,8.766761,42.315515,40.808067,23.566381,27.421270,0.662775
STILL,aom,av2,0,F2,Michigan_Stadium.y4m,1400x934,24,8,60,0, KEY ,1,60,678032,49.191820,49.489048,49.723025,38.193735,33.390818,97.077637,96.379713,53.540776,47.734371,0.030242
STILL,aom,av2,0,F2,Michigan_Stadium.y4m,1400x934,24,8,85,0, KEY ,1,85,470167,43.998302,44.620241,44.886890,33.227714,29.135047,96.330670,95.302903,49.750696,42.882408,0.060486
STILL,aom,av2,0,F2,Michigan_Stadium.y4m,1400x934,24,8,110,0, KEY ,1,110,309219,38.665152,39.529823,40.294513,28.271275,25.088345,94.290839,92.824336,44.493721,38.345906,0.108400
STILL,aom,av2,0,F2,Michigan_Stadium.y4m,1400x934,24,8,135,0, KEY ,1,135,182481,33.160802,34.538346,36.744403,23.100859,20.736327,88.714376,86.719604,37.991420,33.941156,0.146381
STILL,aom,av2,0,F2,Michigan_Stadium.y4m,1400x934,24,8,160,0, KEY ,1,160,87563,27.639407,30.820460,34.187984,18.016773,16.240035,74.649019,72.559928,30.998991,29.848095,0.202920
STILL,aom,av2,0,F2,Michigan_Stadium.y4m,1400x934,24,8,185,0, KEY ,1,185,29082,23.014324,28.433080,32.183841,12.660165,11.248501,48.115266,46.343141,23.955420,26.179096,0.175574
STILL,aom,av2,0,F2,OperaLamps.y4m,1296x864,24,8,60,0, KEY ,1,60,455740,49.246421,49.293278,49.281877,36.057310,33.976735,96.896477,96.106408,54.296651,46.077830,0.711406
STILL,aom,av2,0,F2,OperaLamps.y4m,1296x864,24,8,85,0, KEY ,1,85,280485,44.192251,44.068888,44.362562,31.072166,29.445783,95.710207,94.609572,50.084625,41.175519,1.186758
STILL,aom,av2,0,F2,OperaLamps.y4m,1296x864,24,8,110,0, KEY ,1,110,159363,39.315304,39.620208,40.394608,25.978050,24.850177,92.805839,91.312449,43.955848,37.143737,1.163567
STILL,aom,av2,0,F2,OperaLamps.y4m,1296x864,24,8,135,0, KEY ,1,135,81036,34.503680,35.830104,36.914872,20.775972,20.055826,85.626600,83.659405,36.804295,33.445173,1.046085
STILL,aom,av2,0,F2,OperaLamps.y4m,1296x864,24,8,160,0, KEY ,1,160,36638,30.116651,32.729533,34.355307,15.658255,15.356906,69.308178,67.385966,30.097527,30.129220,1.010001
STILL,aom,av2,0,F2,OperaLamps.y4m,1296x864,24,8,185,0, KEY ,1,185,14077,26.143203,30.272360,32.376774,10.412912,10.629493,41.290396,39.457505,24.046162,27.029438,0.568756
STILL,aom,av2,0,F2,Orion_Nebula.y4m,1200x840,24,8,60,0, KEY ,1,60,145823,49.263944,50.295312,50.843112,30.433337,28.678814,96.127832,94.884165,50.520652,48.087309,0.000103
STILL,aom,av2,0,F2,Orion_Nebula.y4m,1200x840,24,8,85,0, KEY ,1,85,53575,45.343467,47.916531,48.293449,24.227060,23.406644,93.943903,92.398752,45.535189,44.921464,0.011363
STILL,aom,av2,0,F2,Orion_Nebula.y4m,1200x840,24,8,110,0, KEY ,1,110,22315,42.676189,45.887066,45.909773,19.424944,19.599359,88.131772,86.551917,40.862705,42.642453,0.065670
STILL,aom,av2,0,F2,Orion_Nebula.y4m,1200x840,24,8,135,0, KEY ,1,135,9386,40.030047,43.811438,43.473005,15.436696,16.246271,75.482956,73.792557,36.763634,40.391964,0.345021
STILL,aom,av2,0,F2,Orion_Nebula.y4m,1200x840,24,8,160,0, KEY ,1,160,3930,37.382255,42.017402,40.999520,12.224164,13.330830,53.983954,52.520305,33.392554,38.229799,0.935114
STILL,aom,av2,0,F2,Orion_Nebula.y4m,1200x840,24,8,185,0, KEY ,1,185,1569,34.718326,39.703587,38.575356,9.713768,10.800594,28.274780,27.466981,30.445880,35.825982,2.008779
STILL,aom,av2,0,F2,Saint_Catherine-Caravaggio.y4m,876x1140,24,8,60,0, KEY ,1,60,302575,49.249148,50.030724,50.568522,31.373290,29.926983,96.996485,96.324405,51.286101,46.725121,0.000017
STILL,aom,av2,0,F2,Saint_Catherine-Caravaggio.y4m,876x1140,24,8,85,0, KEY ,1,85,143300,43.001585,48.130351,48.300100,24.582699,23.295980,96.163169,95.165202,46.124609,43.447863,1.438602
STILL,aom,av2,0,F2,Saint_Catherine-Caravaggio.y4m,876x1140,24,8,110,0, KEY ,1,110,52914,38.653116,46.353755,46.243565,19.569734,18.728966,93.680818,92.284188,41.065725,40.659780,4.058404
STILL,aom,av2,0,F2,Saint_Catherine-Caravaggio.y4m,876x1140,24,8,135,0, KEY ,1,135,20554,35.853341,44.293255,43.953778,16.019496,15.769315,87.041638,85.315838,36.738763,38.536686,5.397739
STILL,aom,av2,0,F2,Saint_Catherine-Caravaggio.y4m,876x1140,24,8,160,0, KEY ,1,160,8985,33.432315,41.978080,41.595444,13.244943,13.517155,74.064039,71.867454,32.847134,36.536083,6.246439
STILL,aom,av2,0,F2,Saint_Catherine-Caravaggio.y4m,876x1140,24,8,185,0, KEY ,1,185,3709,30.749134,39.479854,38.972928,10.620411,11.218930,54.010680,51.924214,28.949029,34.283267,7.101839
STILL,aom,av2,0,F2,Streptopelia_orientalis.y4m,1404x936,24,8,60,0, KEY ,1,60,247185,48.771390,50.133407,50.897510,37.295920,30.876703,96.901447,96.145548,52.342119,47.789082,0.006707
STILL,aom,av2,0,F2,Streptopelia_orientalis.y4m,1404x936,24,8,85,0, KEY ,1,85,120285,45.322301,46.733782,47.964825,31.620627,27.066686,95.773294,94.636768,47.915398,44.553089,0.022503
STILL,aom,av2,0,F2,Streptopelia_orientalis.y4m,1404x936,24,8,110,0, KEY ,1,110,62679,42.072855,43.341562,45.028250,26.648731,23.590483,92.758342,91.256840,42.818580,41.611306,0.017522
STILL,aom,av2,0,F2,Streptopelia_orientalis.y4m,1404x936,24,8,135,0, KEY ,1,135,32141,38.596733,39.855791,41.940569,21.768612,19.875069,85.478140,83.553679,37.329840,38.432171,0.017308
STILL,aom,av2,0,F2,Streptopelia_orientalis.y4m,1404x936,24,8,160,0, KEY ,1,160,16230,35.029620,36.454945,38.995197,17.060257,16.118419,70.167608,67.991581,32.190585,35.082144,0.017854
STILL,aom,av2,0,F2,Streptopelia_orientalis.y4m,1404x936,24,8,185,0, KEY ,1,185,7537,31.231399,33.263235,36.274951,12.428714,12.211775,45.429134,43.839450,27.391362,31.642976,0.024875
STILL,aom,av2,0,F2,Swallowtail.y4m,1300x900,24,8,60,0, KEY ,1,60,310034,49.051080,50.322278,51.059850,35.805768,30.380893,96.992838,96.267636,51.558689,49.836222,0.007617
STILL,aom,av2,0,F2,Swallowtail.y4m,1300x900,24,8,85,0, KEY ,1,85,129041,43.448472,47.258403,48.140197,29.111057,24.201100,96.138950,95.027699,46.512855,45.184615,0.099941
STILL,aom,av2,0,F2,Swallowtail.y4m,1300x900,24,8,110,0, KEY ,1,110,65316,40.590796,44.278048,45.246607,25.249168,21.722492,93.704912,92.128144,42.721638,42.620584,0.244478
STILL,aom,av2,0,F2,Swallowtail.y4m,1300x900,24,8,135,0, KEY ,1,135,33611,37.395471,41.146833,42.054450,21.377056,18.995828,87.327756,85.293331,37.836777,39.860044,0.264923
STILL,aom,av2,0,F2,Swallowtail.y4m,1300x900,24,8,160,0, KEY ,1,160,16685,33.943620,37.910817,38.829178,17.540816,16.100277,74.353406,71.976844,32.601728,36.831612,0.222619
STILL,aom,av2,0,F2,Swallowtail.y4m,1300x900,24,8,185,0, KEY ,1,185,7739,30.376621,34.872106,35.568904,13.680430,13.014702,52.227885,50.266319,27.546992,33.623158,0.355730
STILL,aom,av2,0,F2,Washington_Monument.y4m,1204x904,24,8,60,0, KEY ,1,60,287687,49.560109,50.871277,50.782231,34.664137,30.598669,96.830046,95.737148,51.572510,47.692585,0.393969
STILL,aom,av2,0,F2,Washington_Monument.y4m,1204x904,24,8,85,0, KEY ,1,85,176842,44.792719,48.821214,48.555229,28.817448,25.759759,95.551625,94.140156,47.499876,44.580375,0.533135
STILL,aom,av2,0,F2,Washington_Monument.y4m,1204x904,24,8,110,0, KEY ,1,110,103731,39.887690,46.828263,46.904573,23.345896,21.117463,91.919061,90.248149,42.429555,41.559376,0.576519
STILL,aom,av2,0,F2,Washington_Monument.y4m,1204x904,24,8,135,0, KEY ,1,135,50295,34.916609,44.543329,45.110946,18.261012,16.558953,83.124123,81.262601,36.851785,38.156551,0.546781
STILL,aom,av2,0,F2,Washington_Monument.y4m,1204x904,24,8,160,0, KEY ,1,160,18131,30.631731,42.313929,43.466491,14.031703,12.866066,64.550292,62.737748,31.710255,34.919902,0.453472
STILL,aom,av2,0,F2,Washington_Monument.y4m,1204x904,24,8,185,0, KEY ,1,185,4893,27.589136,39.925312,40.996404,10.331739,9.711892,36.097463,34.840677,27.097178,32.118468,0.537181
STILL,aom,av2,0,F2,Wasserfassstelle_von_1898_im_Schanerloch.y4m,816x1150,24,8,60,0, KEY ,1,60,388822,49.185699,50.114451,50.337490,34.908809,32.965852,96.943680,96.124187,53.118911,47.632256,0.000462
STILL,aom,av2,0,F2,Wasserfassstelle_von_1898_im_Schanerloch.y4m,816x1150,24,8,85,0, KEY ,1,85,253082,43.583659,47.702495,48.222436,28.966871,27.352793,95.946070,94.780457,49.020167,43.743809,0.012949
STILL,aom,av2,0,F2,Wasserfassstelle_von_1898_im_Schanerloch.y4m,816x1150,24,8,110,0, KEY ,1,110,155220,38.191168,46.084423,46.799432,23.204751,22.157081,93.064062,91.578777,43.290002,39.967143,0.023484
STILL,aom,av2,0,F2,Wasserfassstelle_von_1898_im_Schanerloch.y4m,816x1150,24,8,135,0, KEY ,1,135,82069,33.030166,44.580980,45.360782,17.889456,17.443153,85.823731,83.977103,36.865246,36.007027,0.042071
STILL,aom,av2,0,F2,Wasserfassstelle_von_1898_im_Schanerloch.y4m,816x1150,24,8,160,0, KEY ,1,160,32819,28.376373,42.723072,43.168381,13.067903,13.130455,68.413233,66.581922,30.393951,32.132467,0.161943
STILL,aom,av2,0,F2,Wasserfassstelle_von_1898_im_Schanerloch.y4m,816x1150,24,8,185,0, KEY ,1,185,10278,24.908882,40.631883,40.492051,8.900179,9.307234,41.602367,40.078478,24.498692,28.964575,0.333063
STILL,aom,av2,0,F2,Zoo_de_la_Barben.y4m,1296x864,24,8,60,0, KEY ,1,60,144769,48.741122,50.343209,50.406620,29.611075,28.103594,96.702572,95.848678,48.778960,45.008741,0.468496
STILL,aom,av2,0,F2,Zoo_de_la_Barben.y4m,1296x864,24,8,85,0, KEY ,1,85,58103,45.772466,48.467639,48.484487,26.100757,25.138189,95.618884,94.336861,46.597645,43.356403,9.532899
STILL,aom,av2,0,F2,Zoo_de_la_Barben.y4m,1296x864,24,8,110,0, KEY ,1,110,27873,43.020687,46.382382,46.293178,23.511494,22.872187,92.645461,90.950029,43.999400,41.950176,9.141769
STILL,aom,av2,0,F2,Zoo_de_la_Barben.y4m,1296x864,24,8,135,0, KEY ,1,135,11875,39.809339,43.993227,43.884080,19.749274,19.635807,85.561906,83.436685,39.577077,40.245457,8.642481
STILL,aom,av2,0,F2,Zoo_de_la_Barben.y4m,1296x864,24,8,160,0, KEY ,1,160,4728,36.883949,41.636549,41.302650,15.788773,16.236062,71.746210,69.232446,34.877533,38.356267,8.398587
STILL,aom,av2,0,F2,Zoo_de_la_Barben.y4m,1296x864,24,8,185,0, KEY ,1,185,1961,34.139302,39.386946,38.802941,12.408114,13.139193,50.351689,48.103537,30.883416,36.237086,8.330891
